module go-puller-scheduler

go 1.17

require (
	cloud.google.com/go v0.104.0 // indirect
	cloud.google.com/go/compute v1.7.0 // indirect
	cloud.google.com/go/iam v0.3.0 // indirect
	cloud.google.com/go/pubsub v1.25.1 // indirect
	cloud.google.com/go/scheduler v1.3.0 // indirect
	github.com/golang/groupcache v0.0.0-20200121045136-8c9f03a8e57e // indirect
	github.com/golang/protobuf v1.5.2 // indirect
	github.com/google/go-cmp v0.5.8 // indirect
	github.com/googleapis/enterprise-certificate-proxy v0.1.0 // indirect
	github.com/googleapis/gax-go/v2 v2.4.0 // indirect
	github.com/joho/godotenv v1.4.0 // indirect
	go.opencensus.io v0.23.0 // indirect
	golang.org/x/net v0.0.0-20220624214902-1bab6f366d9e // indirect
	golang.org/x/oauth2 v0.0.0-20220622183110-fd043fe589d2 // indirect
	golang.org/x/sync v0.0.0-20220601150217-0de741cfad7f // indirect
	golang.org/x/sys v0.0.0-20220624220833-87e55d714810 // indirect
	golang.org/x/text v0.3.7 // indirect
	google.golang.org/api v0.93.0 // indirect
	google.golang.org/appengine v1.6.7 // indirect
	google.golang.org/genproto v0.0.0-20220822174746-9e6da59bd2fc // indirect
	google.golang.org/grpc v1.48.0 // indirect
	google.golang.org/protobuf v1.28.1 // indirect
)
